-- Merging decision tree log ---
manifest
ADDED from /home/noir/Android/work/Clients/gootax_app_android_client_v3/app/src/main/AndroidManifest.xml:2:1-167:12
	package
		ADDED from /home/noir/Android/work/Clients/gootax_app_android_client_v3/app/src/main/AndroidManifest.xml:3:5-32
		INJECTED from /home/noir/Android/work/Clients/gootax_app_android_client_v3/app/src/main/AndroidManifest.xml
		INJECTED from /home/noir/Android/work/Clients/gootax_app_android_client_v3/app/src/main/AndroidManifest.xml
	android:versionName
		INJECTED from /home/noir/Android/work/Clients/gootax_app_android_client_v3/app/src/main/AndroidManifest.xml
		INJECTED from /home/noir/Android/work/Clients/gootax_app_android_client_v3/app/src/main/AndroidManifest.xml
	xmlns:android
		ADDED from /home/noir/Android/work/Clients/gootax_app_android_client_v3/app/src/main/AndroidManifest.xml:2:11-69
	android:versionCode
		INJECTED from /home/noir/Android/work/Clients/gootax_app_android_client_v3/app/src/main/AndroidManifest.xml
		INJECTED from /home/noir/Android/work/Clients/gootax_app_android_client_v3/app/src/main/AndroidManifest.xml
uses-permission#android.permission.ACCESS_COARSE_LOCATION
ADDED from /home/noir/Android/work/Clients/gootax_app_android_client_v3/app/src/main/AndroidManifest.xml:5:5-81
	android:name
		ADDED from /home/noir/Android/work/Clients/gootax_app_android_client_v3/app/src/main/AndroidManifest.xml:5:22-78
uses-permission#android.permission.ACCESS_FINE_LOCATION
ADDED from /home/noir/Android/work/Clients/gootax_app_android_client_v3/app/src/main/AndroidManifest.xml:6:5-79
	android:name
		ADDED from /home/noir/Android/work/Clients/gootax_app_android_client_v3/app/src/main/AndroidManifest.xml:6:22-76
uses-permission#android.permission.ACCESS_WIFI_STATE
ADDED from /home/noir/Android/work/Clients/gootax_app_android_client_v3/app/src/main/AndroidManifest.xml:7:5-76
	android:name
		ADDED from /home/noir/Android/work/Clients/gootax_app_android_client_v3/app/src/main/AndroidManifest.xml:7:22-73
uses-permission#android.permission.ACCESS_NETWORK_STATE
ADDED from /home/noir/Android/work/Clients/gootax_app_android_client_v3/app/src/main/AndroidManifest.xml:8:5-79
MERGED from [com.google.android.gms:play-services-maps:9.2.1] /home/noir/Android/work/Clients/gootax_app_android_client_v3/app/build/intermediates/exploded-aar/com.google.android.gms/play-services-maps/9.2.1/AndroidManifest.xml:20:5-78
MERGED from [com.yandex.android:mobmetricalib:2.42] /home/noir/Android/work/Clients/gootax_app_android_client_v3/app/build/intermediates/exploded-aar/com.yandex.android/mobmetricalib/2.42/AndroidManifest.xml:14:5-79
	android:name
		ADDED from /home/noir/Android/work/Clients/gootax_app_android_client_v3/app/src/main/AndroidManifest.xml:8:22-76
uses-permission#android.permission.READ_EXTERNAL_STORAGE
ADDED from /home/noir/Android/work/Clients/gootax_app_android_client_v3/app/src/main/AndroidManifest.xml:9:5-80
	android:name
		ADDED from /home/noir/Android/work/Clients/gootax_app_android_client_v3/app/src/main/AndroidManifest.xml:9:22-77
uses-permission#android.permission.INTERNET
ADDED from /home/noir/Android/work/Clients/gootax_app_android_client_v3/app/src/main/AndroidManifest.xml:10:5-67
MERGED from [com.google.android.gms:play-services-maps:9.2.1] /home/noir/Android/work/Clients/gootax_app_android_client_v3/app/build/intermediates/exploded-aar/com.google.android.gms/play-services-maps/9.2.1/AndroidManifest.xml:21:5-66
MERGED from [com.google.android.gms:play-services-gcm:9.2.1] /home/noir/Android/work/Clients/gootax_app_android_client_v3/app/build/intermediates/exploded-aar/com.google.android.gms/play-services-gcm/9.2.1/AndroidManifest.xml:22:5-67
MERGED from [com.google.android.gms:play-services-iid:9.2.1] /home/noir/Android/work/Clients/gootax_app_android_client_v3/app/build/intermediates/exploded-aar/com.google.android.gms/play-services-iid/9.2.1/AndroidManifest.xml:22:5-67
MERGED from [com.yandex.android:mobmetricalib:2.42] /home/noir/Android/work/Clients/gootax_app_android_client_v3/app/build/intermediates/exploded-aar/com.yandex.android/mobmetricalib/2.42/AndroidManifest.xml:13:5-67
	android:name
		ADDED from /home/noir/Android/work/Clients/gootax_app_android_client_v3/app/src/main/AndroidManifest.xml:10:22-64
uses-permission#android.permission.WAKE_LOCK
ADDED from /home/noir/Android/work/Clients/gootax_app_android_client_v3/app/src/main/AndroidManifest.xml:11:5-68
	android:name
		ADDED from /home/noir/Android/work/Clients/gootax_app_android_client_v3/app/src/main/AndroidManifest.xml:11:22-65
uses-permission#com.google.android.c2dm.permission.RECEIVE
ADDED from /home/noir/Android/work/Clients/gootax_app_android_client_v3/app/src/main/AndroidManifest.xml:12:5-82
MERGED from [com.google.android.gms:play-services-gcm:9.2.1] /home/noir/Android/work/Clients/gootax_app_android_client_v3/app/build/intermediates/exploded-aar/com.google.android.gms/play-services-gcm/9.2.1/AndroidManifest.xml:21:5-82
MERGED from [com.google.android.gms:play-services-iid:9.2.1] /home/noir/Android/work/Clients/gootax_app_android_client_v3/app/build/intermediates/exploded-aar/com.google.android.gms/play-services-iid/9.2.1/AndroidManifest.xml:21:5-82
	android:name
		ADDED from /home/noir/Android/work/Clients/gootax_app_android_client_v3/app/src/main/AndroidManifest.xml:12:22-79
permission#com.gootax.client.permission.C2D_MESSAGE
ADDED from /home/noir/Android/work/Clients/gootax_app_android_client_v3/app/src/main/AndroidManifest.xml:14:5-16:47
	android:protectionLevel
		ADDED from /home/noir/Android/work/Clients/gootax_app_android_client_v3/app/src/main/AndroidManifest.xml:16:9-44
	android:name
		ADDED from /home/noir/Android/work/Clients/gootax_app_android_client_v3/app/src/main/AndroidManifest.xml:15:9-64
uses-permission#com.gootax.client.permission.C2D_MESSAGE
ADDED from /home/noir/Android/work/Clients/gootax_app_android_client_v3/app/src/main/AndroidManifest.xml:18:5-80
	android:name
		ADDED from /home/noir/Android/work/Clients/gootax_app_android_client_v3/app/src/main/AndroidManifest.xml:18:22-77
application
ADDED from /home/noir/Android/work/Clients/gootax_app_android_client_v3/app/src/main/AndroidManifest.xml:20:5-164:19
MERGED from [com.android.support:support-v4:24.1.1] /home/noir/Android/work/Clients/gootax_app_android_client_v3/app/build/intermediates/exploded-aar/com.android.support/support-v4/24.1.1/AndroidManifest.xml:25:5-20
MERGED from [com.android.support:design:24.1.1] /home/noir/Android/work/Clients/gootax_app_android_client_v3/app/build/intermediates/exploded-aar/com.android.support/design/24.1.1/AndroidManifest.xml:22:5-20
MERGED from [com.android.support:support-v4:24.1.1] /home/noir/Android/work/Clients/gootax_app_android_client_v3/app/build/intermediates/exploded-aar/com.android.support/support-v4/24.1.1/AndroidManifest.xml:25:5-20
MERGED from [com.android.support:support-v4:24.1.1] /home/noir/Android/work/Clients/gootax_app_android_client_v3/app/build/intermediates/exploded-aar/com.android.support/support-v4/24.1.1/AndroidManifest.xml:25:5-20
MERGED from [com.android.support:appcompat-v7:24.1.1] /home/noir/Android/work/Clients/gootax_app_android_client_v3/app/build/intermediates/exploded-aar/com.android.support/appcompat-v7/24.1.1/AndroidManifest.xml:25:5-20
MERGED from [com.android.support:animated-vector-drawable:24.1.1] /home/noir/Android/work/Clients/gootax_app_android_client_v3/app/build/intermediates/exploded-aar/com.android.support/animated-vector-drawable/24.1.1/AndroidManifest.xml:22:5-20
MERGED from [com.android.support:support-vector-drawable:24.1.1] /home/noir/Android/work/Clients/gootax_app_android_client_v3/app/build/intermediates/exploded-aar/com.android.support/support-vector-drawable/24.1.1/AndroidManifest.xml:23:5-20
MERGED from [com.android.support:support-v4:24.1.1] /home/noir/Android/work/Clients/gootax_app_android_client_v3/app/build/intermediates/exploded-aar/com.android.support/support-v4/24.1.1/AndroidManifest.xml:25:5-20
MERGED from [com.android.support:support-v4:24.1.1] /home/noir/Android/work/Clients/gootax_app_android_client_v3/app/build/intermediates/exploded-aar/com.android.support/support-v4/24.1.1/AndroidManifest.xml:25:5-20
MERGED from [com.android.support:support-vector-drawable:24.1.1] /home/noir/Android/work/Clients/gootax_app_android_client_v3/app/build/intermediates/exploded-aar/com.android.support/support-vector-drawable/24.1.1/AndroidManifest.xml:23:5-20
MERGED from [com.android.support:support-v4:24.1.1] /home/noir/Android/work/Clients/gootax_app_android_client_v3/app/build/intermediates/exploded-aar/com.android.support/support-v4/24.1.1/AndroidManifest.xml:25:5-20
MERGED from [com.android.support:percent:24.1.1] /home/noir/Android/work/Clients/gootax_app_android_client_v3/app/build/intermediates/exploded-aar/com.android.support/percent/24.1.1/AndroidManifest.xml:22:5-20
MERGED from [com.android.support:support-v4:24.1.1] /home/noir/Android/work/Clients/gootax_app_android_client_v3/app/build/intermediates/exploded-aar/com.android.support/support-v4/24.1.1/AndroidManifest.xml:25:5-20
MERGED from [com.android.support:support-v4:24.1.1] /home/noir/Android/work/Clients/gootax_app_android_client_v3/app/build/intermediates/exploded-aar/com.android.support/support-v4/24.1.1/AndroidManifest.xml:25:5-20
MERGED from [com.android.support:cardview-v7:24.1.1] /home/noir/Android/work/Clients/gootax_app_android_client_v3/app/build/intermediates/exploded-aar/com.android.support/cardview-v7/24.1.1/AndroidManifest.xml:22:5-20
MERGED from [com.google.android.gms:play-services-maps:9.2.1] /home/noir/Android/work/Clients/gootax_app_android_client_v3/app/build/intermediates/exploded-aar/com.google.android.gms/play-services-maps/9.2.1/AndroidManifest.xml:27:5-20
MERGED from [com.google.android.gms:play-services-base:9.2.1] /home/noir/Android/work/Clients/gootax_app_android_client_v3/app/build/intermediates/exploded-aar/com.google.android.gms/play-services-base/9.2.1/AndroidManifest.xml:19:5-23:19
MERGED from [com.google.android.gms:play-services-basement:9.2.1] /home/noir/Android/work/Clients/gootax_app_android_client_v3/app/build/intermediates/exploded-aar/com.google.android.gms/play-services-basement/9.2.1/AndroidManifest.xml:20:5-24:19
MERGED from [com.android.support:support-v4:24.1.1] /home/noir/Android/work/Clients/gootax_app_android_client_v3/app/build/intermediates/exploded-aar/com.android.support/support-v4/24.1.1/AndroidManifest.xml:25:5-20
MERGED from [com.google.android.gms:play-services-tasks:9.2.1] /home/noir/Android/work/Clients/gootax_app_android_client_v3/app/build/intermediates/exploded-aar/com.google.android.gms/play-services-tasks/9.2.1/AndroidManifest.xml:5:5-20
MERGED from [com.google.android.gms:play-services-basement:9.2.1] /home/noir/Android/work/Clients/gootax_app_android_client_v3/app/build/intermediates/exploded-aar/com.google.android.gms/play-services-basement/9.2.1/AndroidManifest.xml:20:5-24:19
MERGED from [com.android.support:support-v4:24.1.1] /home/noir/Android/work/Clients/gootax_app_android_client_v3/app/build/intermediates/exploded-aar/com.android.support/support-v4/24.1.1/AndroidManifest.xml:25:5-20
MERGED from [com.google.android.gms:play-services-basement:9.2.1] /home/noir/Android/work/Clients/gootax_app_android_client_v3/app/build/intermediates/exploded-aar/com.google.android.gms/play-services-basement/9.2.1/AndroidManifest.xml:20:5-24:19
MERGED from [com.android.support:support-v4:24.1.1] /home/noir/Android/work/Clients/gootax_app_android_client_v3/app/build/intermediates/exploded-aar/com.android.support/support-v4/24.1.1/AndroidManifest.xml:25:5-20
MERGED from [com.google.android.gms:play-services-gcm:9.2.1] /home/noir/Android/work/Clients/gootax_app_android_client_v3/app/build/intermediates/exploded-aar/com.google.android.gms/play-services-gcm/9.2.1/AndroidManifest.xml:24:5-20
MERGED from [com.google.android.gms:play-services-base:9.2.1] /home/noir/Android/work/Clients/gootax_app_android_client_v3/app/build/intermediates/exploded-aar/com.google.android.gms/play-services-base/9.2.1/AndroidManifest.xml:19:5-23:19
MERGED from [com.google.android.gms:play-services-basement:9.2.1] /home/noir/Android/work/Clients/gootax_app_android_client_v3/app/build/intermediates/exploded-aar/com.google.android.gms/play-services-basement/9.2.1/AndroidManifest.xml:20:5-24:19
MERGED from [com.android.support:support-v4:24.1.1] /home/noir/Android/work/Clients/gootax_app_android_client_v3/app/build/intermediates/exploded-aar/com.android.support/support-v4/24.1.1/AndroidManifest.xml:25:5-20
MERGED from [com.google.android.gms:play-services-tasks:9.2.1] /home/noir/Android/work/Clients/gootax_app_android_client_v3/app/build/intermediates/exploded-aar/com.google.android.gms/play-services-tasks/9.2.1/AndroidManifest.xml:5:5-20
MERGED from [com.google.android.gms:play-services-basement:9.2.1] /home/noir/Android/work/Clients/gootax_app_android_client_v3/app/build/intermediates/exploded-aar/com.google.android.gms/play-services-basement/9.2.1/AndroidManifest.xml:20:5-24:19
MERGED from [com.android.support:support-v4:24.1.1] /home/noir/Android/work/Clients/gootax_app_android_client_v3/app/build/intermediates/exploded-aar/com.android.support/support-v4/24.1.1/AndroidManifest.xml:25:5-20
MERGED from [com.google.android.gms:play-services-basement:9.2.1] /home/noir/Android/work/Clients/gootax_app_android_client_v3/app/build/intermediates/exploded-aar/com.google.android.gms/play-services-basement/9.2.1/AndroidManifest.xml:20:5-24:19
MERGED from [com.android.support:support-v4:24.1.1] /home/noir/Android/work/Clients/gootax_app_android_client_v3/app/build/intermediates/exploded-aar/com.android.support/support-v4/24.1.1/AndroidManifest.xml:25:5-20
MERGED from [com.google.android.gms:play-services-iid:9.2.1] /home/noir/Android/work/Clients/gootax_app_android_client_v3/app/build/intermediates/exploded-aar/com.google.android.gms/play-services-iid/9.2.1/AndroidManifest.xml:24:5-20
MERGED from [com.google.android.gms:play-services-base:9.2.1] /home/noir/Android/work/Clients/gootax_app_android_client_v3/app/build/intermediates/exploded-aar/com.google.android.gms/play-services-base/9.2.1/AndroidManifest.xml:19:5-23:19
MERGED from [com.google.android.gms:play-services-basement:9.2.1] /home/noir/Android/work/Clients/gootax_app_android_client_v3/app/build/intermediates/exploded-aar/com.google.android.gms/play-services-basement/9.2.1/AndroidManifest.xml:20:5-24:19
MERGED from [com.android.support:support-v4:24.1.1] /home/noir/Android/work/Clients/gootax_app_android_client_v3/app/build/intermediates/exploded-aar/com.android.support/support-v4/24.1.1/AndroidManifest.xml:25:5-20
MERGED from [com.google.android.gms:play-services-tasks:9.2.1] /home/noir/Android/work/Clients/gootax_app_android_client_v3/app/build/intermediates/exploded-aar/com.google.android.gms/play-services-tasks/9.2.1/AndroidManifest.xml:5:5-20
MERGED from [com.google.android.gms:play-services-basement:9.2.1] /home/noir/Android/work/Clients/gootax_app_android_client_v3/app/build/intermediates/exploded-aar/com.google.android.gms/play-services-basement/9.2.1/AndroidManifest.xml:20:5-24:19
MERGED from [com.android.support:support-v4:24.1.1] /home/noir/Android/work/Clients/gootax_app_android_client_v3/app/build/intermediates/exploded-aar/com.android.support/support-v4/24.1.1/AndroidManifest.xml:25:5-20
MERGED from [com.google.android.gms:play-services-basement:9.2.1] /home/noir/Android/work/Clients/gootax_app_android_client_v3/app/build/intermediates/exploded-aar/com.google.android.gms/play-services-basement/9.2.1/AndroidManifest.xml:20:5-24:19
MERGED from [com.android.support:support-v4:24.1.1] /home/noir/Android/work/Clients/gootax_app_android_client_v3/app/build/intermediates/exploded-aar/com.android.support/support-v4/24.1.1/AndroidManifest.xml:25:5-20
MERGED from [com.android.support:support-v4:24.1.1] /home/noir/Android/work/Clients/gootax_app_android_client_v3/app/build/intermediates/exploded-aar/com.android.support/support-v4/24.1.1/AndroidManifest.xml:25:5-20
MERGED from [com.android.support:support-v4:24.1.1] /home/noir/Android/work/Clients/gootax_app_android_client_v3/app/build/intermediates/exploded-aar/com.android.support/support-v4/24.1.1/AndroidManifest.xml:25:5-20
MERGED from [com.android.support:support-v4:24.1.1] /home/noir/Android/work/Clients/gootax_app_android_client_v3/app/build/intermediates/exploded-aar/com.android.support/support-v4/24.1.1/AndroidManifest.xml:25:5-20
MERGED from [com.yandex.android:mobmetricalib:2.42] /home/noir/Android/work/Clients/gootax_app_android_client_v3/app/build/intermediates/exploded-aar/com.yandex.android/mobmetricalib/2.42/AndroidManifest.xml:16:5-48:19
	android:screenOrientation
		ADDED from /home/noir/Android/work/Clients/gootax_app_android_client_v3/app/src/main/AndroidManifest.xml:25:9-45
	android:label
		ADDED from /home/noir/Android/work/Clients/gootax_app_android_client_v3/app/src/main/AndroidManifest.xml:24:9-41
	android:supportsRtl
		ADDED from /home/noir/Android/work/Clients/gootax_app_android_client_v3/app/src/main/AndroidManifest.xml:26:9-35
	android:allowBackup
		ADDED from /home/noir/Android/work/Clients/gootax_app_android_client_v3/app/src/main/AndroidManifest.xml:22:9-36
	android:icon
		ADDED from /home/noir/Android/work/Clients/gootax_app_android_client_v3/app/src/main/AndroidManifest.xml:23:9-36
	android:theme
		ADDED from /home/noir/Android/work/Clients/gootax_app_android_client_v3/app/src/main/AndroidManifest.xml:27:9-40
	android:name
		ADDED from /home/noir/Android/work/Clients/gootax_app_android_client_v3/app/src/main/AndroidManifest.xml:21:9-32
meta-data#AA_DB_NAME
ADDED from /home/noir/Android/work/Clients/gootax_app_android_client_v3/app/src/main/AndroidManifest.xml:28:9-30:41
	android:value
		ADDED from /home/noir/Android/work/Clients/gootax_app_android_client_v3/app/src/main/AndroidManifest.xml:30:13-38
	android:name
		ADDED from /home/noir/Android/work/Clients/gootax_app_android_client_v3/app/src/main/AndroidManifest.xml:29:13-38
meta-data#AA_DB_VERSION
ADDED from /home/noir/Android/work/Clients/gootax_app_android_client_v3/app/src/main/AndroidManifest.xml:31:9-33:33
	android:value
		ADDED from /home/noir/Android/work/Clients/gootax_app_android_client_v3/app/src/main/AndroidManifest.xml:33:13-30
	android:name
		ADDED from /home/noir/Android/work/Clients/gootax_app_android_client_v3/app/src/main/AndroidManifest.xml:32:13-41
meta-data#AA_MODELS
ADDED from /home/noir/Android/work/Clients/gootax_app_android_client_v3/app/src/main/AndroidManifest.xml:33:9-44:49
	android:value
		ADDED from /home/noir/Android/work/Clients/gootax_app_android_client_v3/app/src/main/AndroidManifest.xml:33:9-44:49
	android:name
		ADDED from /home/noir/Android/work/Clients/gootax_app_android_client_v3/app/src/main/AndroidManifest.xml:34:13-37
meta-data#com.google.android.maps.v2.API_KEY
ADDED from /home/noir/Android/work/Clients/gootax_app_android_client_v3/app/src/main/AndroidManifest.xml:47:13-71
	android:value
		ADDED from /home/noir/Android/work/Clients/gootax_app_android_client_v3/app/src/main/AndroidManifest.xml:47:17-72
	android:name
		ADDED from /home/noir/Android/work/Clients/gootax_app_android_client_v3/app/src/main/AndroidManifest.xml:47:13-71
activity#com.gootax.client.activities.SplashActivity
ADDED from /home/noir/Android/work/Clients/gootax_app_android_client_v3/app/src/main/AndroidManifest.xml:57:9-65:20
	android:screenOrientation
		ADDED from /home/noir/Android/work/Clients/gootax_app_android_client_v3/app/src/main/AndroidManifest.xml:59:13-49
	android:theme
		ADDED from /home/noir/Android/work/Clients/gootax_app_android_client_v3/app/src/main/AndroidManifest.xml:57:9-65:20
	android:name
		ADDED from /home/noir/Android/work/Clients/gootax_app_android_client_v3/app/src/main/AndroidManifest.xml:58:13-62
intent-filter#android.intent.action.MAIN+android.intent.category.LAUNCHER
ADDED from /home/noir/Android/work/Clients/gootax_app_android_client_v3/app/src/main/AndroidManifest.xml:59:9-64:29
action#android.intent.action.MAIN
ADDED from /home/noir/Android/work/Clients/gootax_app_android_client_v3/app/src/main/AndroidManifest.xml:61:9-69
	android:name
		ADDED from /home/noir/Android/work/Clients/gootax_app_android_client_v3/app/src/main/AndroidManifest.xml:61:9-69
category#android.intent.category.LAUNCHER
ADDED from /home/noir/Android/work/Clients/gootax_app_android_client_v3/app/src/main/AndroidManifest.xml:62:9-63:77
	android:name
		ADDED from /home/noir/Android/work/Clients/gootax_app_android_client_v3/app/src/main/AndroidManifest.xml:62:9-63:77
activity#com.gootax.client.activities.OrderCompletedActivity
ADDED from /home/noir/Android/work/Clients/gootax_app_android_client_v3/app/src/main/AndroidManifest.xml:66:9-68:52
	android:screenOrientation
		ADDED from /home/noir/Android/work/Clients/gootax_app_android_client_v3/app/src/main/AndroidManifest.xml:68:13-49
	android:name
		ADDED from /home/noir/Android/work/Clients/gootax_app_android_client_v3/app/src/main/AndroidManifest.xml:67:13-61
activity#com.gootax.client.activities.OrderDetailActivity
ADDED from /home/noir/Android/work/Clients/gootax_app_android_client_v3/app/src/main/AndroidManifest.xml:69:9-71:52
	android:screenOrientation
		ADDED from /home/noir/Android/work/Clients/gootax_app_android_client_v3/app/src/main/AndroidManifest.xml:71:13-49
	android:name
		ADDED from /home/noir/Android/work/Clients/gootax_app_android_client_v3/app/src/main/AndroidManifest.xml:70:13-54
activity#com.gootax.client.activities.ReviewActivity
ADDED from /home/noir/Android/work/Clients/gootax_app_android_client_v3/app/src/main/AndroidManifest.xml:72:9-74:52
	android:screenOrientation
		ADDED from /home/noir/Android/work/Clients/gootax_app_android_client_v3/app/src/main/AndroidManifest.xml:74:13-49
	android:name
		ADDED from /home/noir/Android/work/Clients/gootax_app_android_client_v3/app/src/main/AndroidManifest.xml:73:13-55
activity#com.gootax.client.activities.MainActivity
ADDED from /home/noir/Android/work/Clients/gootax_app_android_client_v3/app/src/main/AndroidManifest.xml:77:9-78:52
	android:screenOrientation
		ADDED from /home/noir/Android/work/Clients/gootax_app_android_client_v3/app/src/main/AndroidManifest.xml:77:9-78:52
	android:launchMode
		ADDED from /home/noir/Android/work/Clients/gootax_app_android_client_v3/app/src/main/AndroidManifest.xml:77:9-78:52
	android:name
		ADDED from /home/noir/Android/work/Clients/gootax_app_android_client_v3/app/src/main/AndroidManifest.xml:78:13-58
activity#com.gootax.client.activities.DetailAddressActivity
ADDED from /home/noir/Android/work/Clients/gootax_app_android_client_v3/app/src/main/AndroidManifest.xml:80:9-81:52
	android:screenOrientation
		ADDED from /home/noir/Android/work/Clients/gootax_app_android_client_v3/app/src/main/AndroidManifest.xml:80:9-81:52
	android:name
		ADDED from /home/noir/Android/work/Clients/gootax_app_android_client_v3/app/src/main/AndroidManifest.xml:81:13-57
activity#com.gootax.client.activities.WishesActivity
ADDED from /home/noir/Android/work/Clients/gootax_app_android_client_v3/app/src/main/AndroidManifest.xml:83:9-84:52
	android:screenOrientation
		ADDED from /home/noir/Android/work/Clients/gootax_app_android_client_v3/app/src/main/AndroidManifest.xml:83:9-84:52
	android:name
		ADDED from /home/noir/Android/work/Clients/gootax_app_android_client_v3/app/src/main/AndroidManifest.xml:84:13-56
activity#com.gootax.client.activities.ProfileActivity
ADDED from /home/noir/Android/work/Clients/gootax_app_android_client_v3/app/src/main/AndroidManifest.xml:86:9-87:52
	android:screenOrientation
		ADDED from /home/noir/Android/work/Clients/gootax_app_android_client_v3/app/src/main/AndroidManifest.xml:86:9-87:52
	android:name
		ADDED from /home/noir/Android/work/Clients/gootax_app_android_client_v3/app/src/main/AndroidManifest.xml:87:13-57
activity#com.gootax.client.activities.AuthActivity
ADDED from /home/noir/Android/work/Clients/gootax_app_android_client_v3/app/src/main/AndroidManifest.xml:89:9-90:52
	android:screenOrientation
		ADDED from /home/noir/Android/work/Clients/gootax_app_android_client_v3/app/src/main/AndroidManifest.xml:89:9-90:52
	android:name
		ADDED from /home/noir/Android/work/Clients/gootax_app_android_client_v3/app/src/main/AndroidManifest.xml:90:13-55
activity#com.gootax.client.activities.LastOrdersActivity
ADDED from /home/noir/Android/work/Clients/gootax_app_android_client_v3/app/src/main/AndroidManifest.xml:92:9-93:52
	android:screenOrientation
		ADDED from /home/noir/Android/work/Clients/gootax_app_android_client_v3/app/src/main/AndroidManifest.xml:92:9-93:52
	android:name
		ADDED from /home/noir/Android/work/Clients/gootax_app_android_client_v3/app/src/main/AndroidManifest.xml:93:13-52
activity#com.gootax.client.activities.PreOrdersActivity
ADDED from /home/noir/Android/work/Clients/gootax_app_android_client_v3/app/src/main/AndroidManifest.xml:95:9-96:52
	android:screenOrientation
		ADDED from /home/noir/Android/work/Clients/gootax_app_android_client_v3/app/src/main/AndroidManifest.xml:95:9-96:52
	android:name
		ADDED from /home/noir/Android/work/Clients/gootax_app_android_client_v3/app/src/main/AndroidManifest.xml:96:13-55
activity#com.gootax.client.activities.PreOrderActivity
ADDED from /home/noir/Android/work/Clients/gootax_app_android_client_v3/app/src/main/AndroidManifest.xml:98:9-99:52
	android:screenOrientation
		ADDED from /home/noir/Android/work/Clients/gootax_app_android_client_v3/app/src/main/AndroidManifest.xml:98:9-99:52
	android:name
		ADDED from /home/noir/Android/work/Clients/gootax_app_android_client_v3/app/src/main/AndroidManifest.xml:99:13-60
activity#com.gootax.client.activities.AddressesActivity
ADDED from /home/noir/Android/work/Clients/gootax_app_android_client_v3/app/src/main/AndroidManifest.xml:100:9-102:52
	android:screenOrientation
		ADDED from /home/noir/Android/work/Clients/gootax_app_android_client_v3/app/src/main/AndroidManifest.xml:100:9-102:52
	android:name
		ADDED from /home/noir/Android/work/Clients/gootax_app_android_client_v3/app/src/main/AndroidManifest.xml:101:13-51
activity#com.gootax.client.activities.OptionsActivity
ADDED from /home/noir/Android/work/Clients/gootax_app_android_client_v3/app/src/main/AndroidManifest.xml:103:9-105:52
	android:screenOrientation
		ADDED from /home/noir/Android/work/Clients/gootax_app_android_client_v3/app/src/main/AndroidManifest.xml:105:13-49
	android:name
		ADDED from /home/noir/Android/work/Clients/gootax_app_android_client_v3/app/src/main/AndroidManifest.xml:104:13-55
activity#com.gootax.client.activities.HelpActivity
ADDED from /home/noir/Android/work/Clients/gootax_app_android_client_v3/app/src/main/AndroidManifest.xml:106:9-108:52
	android:screenOrientation
		ADDED from /home/noir/Android/work/Clients/gootax_app_android_client_v3/app/src/main/AndroidManifest.xml:108:13-49
	android:name
		ADDED from /home/noir/Android/work/Clients/gootax_app_android_client_v3/app/src/main/AndroidManifest.xml:107:13-52
activity#com.gootax.client.activities.CountryActivity
ADDED from /home/noir/Android/work/Clients/gootax_app_android_client_v3/app/src/main/AndroidManifest.xml:109:9-111:52
	android:screenOrientation
		ADDED from /home/noir/Android/work/Clients/gootax_app_android_client_v3/app/src/main/AndroidManifest.xml:111:13-49
	android:name
		ADDED from /home/noir/Android/work/Clients/gootax_app_android_client_v3/app/src/main/AndroidManifest.xml:110:13-54
activity#com.gootax.client.activities.AutoCompleteActivity
ADDED from /home/noir/Android/work/Clients/gootax_app_android_client_v3/app/src/main/AndroidManifest.xml:112:9-114:52
	android:screenOrientation
		ADDED from /home/noir/Android/work/Clients/gootax_app_android_client_v3/app/src/main/AndroidManifest.xml:112:9-114:52
	android:name
		ADDED from /home/noir/Android/work/Clients/gootax_app_android_client_v3/app/src/main/AndroidManifest.xml:113:13-59
activity#com.gootax.client.activities.MapActivity
ADDED from /home/noir/Android/work/Clients/gootax_app_android_client_v3/app/src/main/AndroidManifest.xml:116:13-117:52
	android:screenOrientation
		ADDED from /home/noir/Android/work/Clients/gootax_app_android_client_v3/app/src/main/AndroidManifest.xml:116:13-117:52
	android:name
		ADDED from /home/noir/Android/work/Clients/gootax_app_android_client_v3/app/src/main/AndroidManifest.xml:117:17-63
activity#com.gootax.client.activities.PaymentActivity
ADDED from /home/noir/Android/work/Clients/gootax_app_android_client_v3/app/src/main/AndroidManifest.xml:119:9-120:52
	android:screenOrientation
		ADDED from /home/noir/Android/work/Clients/gootax_app_android_client_v3/app/src/main/AndroidManifest.xml:119:9-120:52
	android:name
		ADDED from /home/noir/Android/work/Clients/gootax_app_android_client_v3/app/src/main/AndroidManifest.xml:120:13-57
activity#com.gootax.client.activities.CardActivity
ADDED from /home/noir/Android/work/Clients/gootax_app_android_client_v3/app/src/main/AndroidManifest.xml:122:9-123:52
	android:screenOrientation
		ADDED from /home/noir/Android/work/Clients/gootax_app_android_client_v3/app/src/main/AndroidManifest.xml:122:9-123:52
	android:name
		ADDED from /home/noir/Android/work/Clients/gootax_app_android_client_v3/app/src/main/AndroidManifest.xml:123:13-52
activity#com.gootax.client.activities.TariffActivity
ADDED from /home/noir/Android/work/Clients/gootax_app_android_client_v3/app/src/main/AndroidManifest.xml:125:9-126:52
	android:screenOrientation
		ADDED from /home/noir/Android/work/Clients/gootax_app_android_client_v3/app/src/main/AndroidManifest.xml:125:9-126:52
	android:name
		ADDED from /home/noir/Android/work/Clients/gootax_app_android_client_v3/app/src/main/AndroidManifest.xml:126:13-66
activity#com.gootax.client.activities.EditProfileActivity
ADDED from /home/noir/Android/work/Clients/gootax_app_android_client_v3/app/src/main/AndroidManifest.xml:130:17-134:20
	android:screenOrientation
		ADDED from /home/noir/Android/work/Clients/gootax_app_android_client_v3/app/src/main/AndroidManifest.xml:130:17-134:20
	android:parentActivityName
		ADDED from /home/noir/Android/work/Clients/gootax_app_android_client_v3/app/src/main/AndroidManifest.xml:130:17-134:20
	android:name
		ADDED from /home/noir/Android/work/Clients/gootax_app_android_client_v3/app/src/main/AndroidManifest.xml:130:25-78
meta-data#android.support.PARENT_ACTIVITY
ADDED from /home/noir/Android/work/Clients/gootax_app_android_client_v3/app/src/main/AndroidManifest.xml:133:9-63
	android:value
		ADDED from /home/noir/Android/work/Clients/gootax_app_android_client_v3/app/src/main/AndroidManifest.xml:133:9-63
	android:name
		ADDED from /home/noir/Android/work/Clients/gootax_app_android_client_v3/app/src/main/AndroidManifest.xml:133:9-63
service#com.gootax.client.network.RetrofitSpiceService
ADDED from /home/noir/Android/work/Clients/gootax_app_android_client_v3/app/src/main/AndroidManifest.xml:138:9-40
	android:exported
		ADDED from /home/noir/Android/work/Clients/gootax_app_android_client_v3/app/src/main/AndroidManifest.xml:138:9-40
	android:name
		ADDED from /home/noir/Android/work/Clients/gootax_app_android_client_v3/app/src/main/AndroidManifest.xml:138:9-40
service#com.gootax.client.network.GeoSpiceService
ADDED from /home/noir/Android/work/Clients/gootax_app_android_client_v3/app/src/main/AndroidManifest.xml:138:9-141:40
	android:exported
		ADDED from /home/noir/Android/work/Clients/gootax_app_android_client_v3/app/src/main/AndroidManifest.xml:140:13-37
	android:name
		ADDED from /home/noir/Android/work/Clients/gootax_app_android_client_v3/app/src/main/AndroidManifest.xml:139:13-65
receiver#com.google.android.gms.gcm.GcmReceiver
ADDED from /home/noir/Android/work/Clients/gootax_app_android_client_v3/app/src/main/AndroidManifest.xml:144:9-152:20
	android:exported
		ADDED from /home/noir/Android/work/Clients/gootax_app_android_client_v3/app/src/main/AndroidManifest.xml:146:13-37
	android:permission
		ADDED from /home/noir/Android/work/Clients/gootax_app_android_client_v3/app/src/main/AndroidManifest.xml:144:9-152:20
	android:name
		ADDED from /home/noir/Android/work/Clients/gootax_app_android_client_v3/app/src/main/AndroidManifest.xml:145:13-63
intent-filter#com.google.android.c2dm.intent.RECEIVE+com.gootax.client
ADDED from /home/noir/Android/work/Clients/gootax_app_android_client_v3/app/src/main/AndroidManifest.xml:146:9-150:29
action#com.google.android.c2dm.intent.RECEIVE
ADDED from /home/noir/Android/work/Clients/gootax_app_android_client_v3/app/src/main/AndroidManifest.xml:143:9-148:81
	android:name
		ADDED from /home/noir/Android/work/Clients/gootax_app_android_client_v3/app/src/main/AndroidManifest.xml:144:13-53
category#com.gootax.client
ADDED from /home/noir/Android/work/Clients/gootax_app_android_client_v3/app/src/main/AndroidManifest.xml:149:1-150:62
	android:name
		ADDED from /home/noir/Android/work/Clients/gootax_app_android_client_v3/app/src/main/AndroidManifest.xml:149:1-150:62
service#com.gootax.client.services.MyGcmListenerService
ADDED from /home/noir/Android/work/Clients/gootax_app_android_client_v3/app/src/main/AndroidManifest.xml:151:1-158:19
	android:exported
		ADDED from /home/noir/Android/work/Clients/gootax_app_android_client_v3/app/src/main/AndroidManifest.xml:151:1-158:19
	android:name
		ADDED from /home/noir/Android/work/Clients/gootax_app_android_client_v3/app/src/main/AndroidManifest.xml:151:1-158:19
intent-filter#com.google.android.c2dm.intent.RECEIVE
ADDED from /home/noir/Android/work/Clients/gootax_app_android_client_v3/app/src/main/AndroidManifest.xml:152:1-153:29
service#com.gootax.client.services.MyInstanceIDListenerService
ADDED from /home/noir/Android/work/Clients/gootax_app_android_client_v3/app/src/main/AndroidManifest.xml:157:1-164:19
	android:exported
		ADDED from /home/noir/Android/work/Clients/gootax_app_android_client_v3/app/src/main/AndroidManifest.xml:157:1-164:19
	android:name
		ADDED from /home/noir/Android/work/Clients/gootax_app_android_client_v3/app/src/main/AndroidManifest.xml:157:1-164:19
intent-filter#com.google.android.gms.iid.InstanceID
ADDED from /home/noir/Android/work/Clients/gootax_app_android_client_v3/app/src/main/AndroidManifest.xml:158:1-159:29
action#com.google.android.gms.iid.InstanceID
ADDED from /home/noir/Android/work/Clients/gootax_app_android_client_v3/app/src/main/AndroidManifest.xml:158:1-159:80
	android:name
		ADDED from /home/noir/Android/work/Clients/gootax_app_android_client_v3/app/src/main/AndroidManifest.xml:158:1-159:80
service#com.gootax.client.services.RegistrationIntentService
ADDED from /home/noir/Android/work/Clients/gootax_app_android_client_v3/app/src/main/AndroidManifest.xml:163:1-164:40
	android:exported
		ADDED from /home/noir/Android/work/Clients/gootax_app_android_client_v3/app/src/main/AndroidManifest.xml:163:1-164:40
	android:name
		ADDED from /home/noir/Android/work/Clients/gootax_app_android_client_v3/app/src/main/AndroidManifest.xml:163:1-164:40
service#com.gootax.client.services.LocationService
ADDED from /home/noir/Android/work/Clients/gootax_app_android_client_v3/app/src/main/AndroidManifest.xml:163:1-164:40
	android:enabled
		ADDED from /home/noir/Android/work/Clients/gootax_app_android_client_v3/app/src/main/AndroidManifest.xml:163:1-164:40
	android:exported
		ADDED from /home/noir/Android/work/Clients/gootax_app_android_client_v3/app/src/main/AndroidManifest.xml:163:1-164:40
	android:name
		ADDED from /home/noir/Android/work/Clients/gootax_app_android_client_v3/app/src/main/AndroidManifest.xml:163:1-164:40
uses-sdk
INJECTED from /home/noir/Android/work/Clients/gootax_app_android_client_v3/app/src/main/AndroidManifest.xml reason: use-sdk injection requested
MERGED from [gootax_app_android_client_v3:slideDateTimePicker:unspecified] /home/noir/Android/work/Clients/gootax_app_android_client_v3/app/build/intermediates/exploded-aar/gootax_app_android_client_v3/slideDateTimePicker/unspecified/AndroidManifest.xml:5:5-7:41
MERGED from [com.android.support:support-v4:24.1.1] /home/noir/Android/work/Clients/gootax_app_android_client_v3/app/build/intermediates/exploded-aar/com.android.support/support-v4/24.1.1/AndroidManifest.xml:21:5-23:54
MERGED from [com.android.support:design:24.1.1] /home/noir/Android/work/Clients/gootax_app_android_client_v3/app/build/intermediates/exploded-aar/com.android.support/design/24.1.1/AndroidManifest.xml:20:5-43
MERGED from [com.android.support:support-v4:24.1.1] /home/noir/Android/work/Clients/gootax_app_android_client_v3/app/build/intermediates/exploded-aar/com.android.support/support-v4/24.1.1/AndroidManifest.xml:21:5-23:54
MERGED from [com.android.support:recyclerview-v7:24.1.1] /home/noir/Android/work/Clients/gootax_app_android_client_v3/app/build/intermediates/exploded-aar/com.android.support/recyclerview-v7/24.1.1/AndroidManifest.xml:20:5-43
MERGED from [com.android.support:support-v4:24.1.1] /home/noir/Android/work/Clients/gootax_app_android_client_v3/app/build/intermediates/exploded-aar/com.android.support/support-v4/24.1.1/AndroidManifest.xml:21:5-23:54
MERGED from [com.android.support:appcompat-v7:24.1.1] /home/noir/Android/work/Clients/gootax_app_android_client_v3/app/build/intermediates/exploded-aar/com.android.support/appcompat-v7/24.1.1/AndroidManifest.xml:21:5-23:78
MERGED from [com.android.support:animated-vector-drawable:24.1.1] /home/noir/Android/work/Clients/gootax_app_android_client_v3/app/build/intermediates/exploded-aar/com.android.support/animated-vector-drawable/24.1.1/AndroidManifest.xml:20:5-44
MERGED from [com.android.support:support-vector-drawable:24.1.1] /home/noir/Android/work/Clients/gootax_app_android_client_v3/app/build/intermediates/exploded-aar/com.android.support/support-vector-drawable/24.1.1/AndroidManifest.xml:21:5-43
MERGED from [com.android.support:support-v4:24.1.1] /home/noir/Android/work/Clients/gootax_app_android_client_v3/app/build/intermediates/exploded-aar/com.android.support/support-v4/24.1.1/AndroidManifest.xml:21:5-23:54
MERGED from [com.android.support:support-v4:24.1.1] /home/noir/Android/work/Clients/gootax_app_android_client_v3/app/build/intermediates/exploded-aar/com.android.support/support-v4/24.1.1/AndroidManifest.xml:21:5-23:54
MERGED from [com.android.support:support-vector-drawable:24.1.1] /home/noir/Android/work/Clients/gootax_app_android_client_v3/app/build/intermediates/exploded-aar/com.android.support/support-vector-drawable/24.1.1/AndroidManifest.xml:21:5-43
MERGED from [com.android.support:support-v4:24.1.1] /home/noir/Android/work/Clients/gootax_app_android_client_v3/app/build/intermediates/exploded-aar/com.android.support/support-v4/24.1.1/AndroidManifest.xml:21:5-23:54
MERGED from [com.android.support:percent:24.1.1] /home/noir/Android/work/Clients/gootax_app_android_client_v3/app/build/intermediates/exploded-aar/com.android.support/percent/24.1.1/AndroidManifest.xml:20:5-43
MERGED from [com.android.support:support-v4:24.1.1] /home/noir/Android/work/Clients/gootax_app_android_client_v3/app/build/intermediates/exploded-aar/com.android.support/support-v4/24.1.1/AndroidManifest.xml:21:5-23:54
MERGED from [com.android.support:recyclerview-v7:24.1.1] /home/noir/Android/work/Clients/gootax_app_android_client_v3/app/build/intermediates/exploded-aar/com.android.support/recyclerview-v7/24.1.1/AndroidManifest.xml:20:5-43
MERGED from [com.android.support:support-v4:24.1.1] /home/noir/Android/work/Clients/gootax_app_android_client_v3/app/build/intermediates/exploded-aar/com.android.support/support-v4/24.1.1/AndroidManifest.xml:21:5-23:54
MERGED from [com.android.support:cardview-v7:24.1.1] /home/noir/Android/work/Clients/gootax_app_android_client_v3/app/build/intermediates/exploded-aar/com.android.support/cardview-v7/24.1.1/AndroidManifest.xml:20:5-43
MERGED from [com.google.android.gms:play-services-maps:9.2.1] /home/noir/Android/work/Clients/gootax_app_android_client_v3/app/build/intermediates/exploded-aar/com.google.android.gms/play-services-maps/9.2.1/AndroidManifest.xml:26:5-42
MERGED from [com.google.android.gms:play-services-base:9.2.1] /home/noir/Android/work/Clients/gootax_app_android_client_v3/app/build/intermediates/exploded-aar/com.google.android.gms/play-services-base/9.2.1/AndroidManifest.xml:18:5-42
MERGED from [com.google.android.gms:play-services-basement:9.2.1] /home/noir/Android/work/Clients/gootax_app_android_client_v3/app/build/intermediates/exploded-aar/com.google.android.gms/play-services-basement/9.2.1/AndroidManifest.xml:18:5-42
MERGED from [com.android.support:support-v4:24.1.1] /home/noir/Android/work/Clients/gootax_app_android_client_v3/app/build/intermediates/exploded-aar/com.android.support/support-v4/24.1.1/AndroidManifest.xml:21:5-23:54
MERGED from [com.google.android.gms:play-services-tasks:9.2.1] /home/noir/Android/work/Clients/gootax_app_android_client_v3/app/build/intermediates/exploded-aar/com.google.android.gms/play-services-tasks/9.2.1/AndroidManifest.xml:4:5-43
MERGED from [com.google.android.gms:play-services-basement:9.2.1] /home/noir/Android/work/Clients/gootax_app_android_client_v3/app/build/intermediates/exploded-aar/com.google.android.gms/play-services-basement/9.2.1/AndroidManifest.xml:18:5-42
MERGED from [com.android.support:support-v4:24.1.1] /home/noir/Android/work/Clients/gootax_app_android_client_v3/app/build/intermediates/exploded-aar/com.android.support/support-v4/24.1.1/AndroidManifest.xml:21:5-23:54
MERGED from [com.google.android.gms:play-services-basement:9.2.1] /home/noir/Android/work/Clients/gootax_app_android_client_v3/app/build/intermediates/exploded-aar/com.google.android.gms/play-services-basement/9.2.1/AndroidManifest.xml:18:5-42
MERGED from [com.android.support:support-v4:24.1.1] /home/noir/Android/work/Clients/gootax_app_android_client_v3/app/build/intermediates/exploded-aar/com.android.support/support-v4/24.1.1/AndroidManifest.xml:21:5-23:54
MERGED from [com.google.android.gms:play-services-gcm:9.2.1] /home/noir/Android/work/Clients/gootax_app_android_client_v3/app/build/intermediates/exploded-aar/com.google.android.gms/play-services-gcm/9.2.1/AndroidManifest.xml:18:5-42
MERGED from [com.google.android.gms:play-services-base:9.2.1] /home/noir/Android/work/Clients/gootax_app_android_client_v3/app/build/intermediates/exploded-aar/com.google.android.gms/play-services-base/9.2.1/AndroidManifest.xml:18:5-42
MERGED from [com.google.android.gms:play-services-basement:9.2.1] /home/noir/Android/work/Clients/gootax_app_android_client_v3/app/build/intermediates/exploded-aar/com.google.android.gms/play-services-basement/9.2.1/AndroidManifest.xml:18:5-42
MERGED from [com.android.support:support-v4:24.1.1] /home/noir/Android/work/Clients/gootax_app_android_client_v3/app/build/intermediates/exploded-aar/com.android.support/support-v4/24.1.1/AndroidManifest.xml:21:5-23:54
MERGED from [com.google.android.gms:play-services-tasks:9.2.1] /home/noir/Android/work/Clients/gootax_app_android_client_v3/app/build/intermediates/exploded-aar/com.google.android.gms/play-services-tasks/9.2.1/AndroidManifest.xml:4:5-43
MERGED from [com.google.android.gms:play-services-basement:9.2.1] /home/noir/Android/work/Clients/gootax_app_android_client_v3/app/build/intermediates/exploded-aar/com.google.android.gms/play-services-basement/9.2.1/AndroidManifest.xml:18:5-42
MERGED from [com.android.support:support-v4:24.1.1] /home/noir/Android/work/Clients/gootax_app_android_client_v3/app/build/intermediates/exploded-aar/com.android.support/support-v4/24.1.1/AndroidManifest.xml:21:5-23:54
MERGED from [com.google.android.gms:play-services-basement:9.2.1] /home/noir/Android/work/Clients/gootax_app_android_client_v3/app/build/intermediates/exploded-aar/com.google.android.gms/play-services-basement/9.2.1/AndroidManifest.xml:18:5-42
MERGED from [com.android.support:support-v4:24.1.1] /home/noir/Android/work/Clients/gootax_app_android_client_v3/app/build/intermediates/exploded-aar/com.android.support/support-v4/24.1.1/AndroidManifest.xml:21:5-23:54
MERGED from [com.google.android.gms:play-services-iid:9.2.1] /home/noir/Android/work/Clients/gootax_app_android_client_v3/app/build/intermediates/exploded-aar/com.google.android.gms/play-services-iid/9.2.1/AndroidManifest.xml:18:5-42
MERGED from [com.google.android.gms:play-services-base:9.2.1] /home/noir/Android/work/Clients/gootax_app_android_client_v3/app/build/intermediates/exploded-aar/com.google.android.gms/play-services-base/9.2.1/AndroidManifest.xml:18:5-42
MERGED from [com.google.android.gms:play-services-basement:9.2.1] /home/noir/Android/work/Clients/gootax_app_android_client_v3/app/build/intermediates/exploded-aar/com.google.android.gms/play-services-basement/9.2.1/AndroidManifest.xml:18:5-42
MERGED from [com.android.support:support-v4:24.1.1] /home/noir/Android/work/Clients/gootax_app_android_client_v3/app/build/intermediates/exploded-aar/com.android.support/support-v4/24.1.1/AndroidManifest.xml:21:5-23:54
MERGED from [com.google.android.gms:play-services-tasks:9.2.1] /home/noir/Android/work/Clients/gootax_app_android_client_v3/app/build/intermediates/exploded-aar/com.google.android.gms/play-services-tasks/9.2.1/AndroidManifest.xml:4:5-43
MERGED from [com.google.android.gms:play-services-basement:9.2.1] /home/noir/Android/work/Clients/gootax_app_android_client_v3/app/build/intermediates/exploded-aar/com.google.android.gms/play-services-basement/9.2.1/AndroidManifest.xml:18:5-42
MERGED from [com.android.support:support-v4:24.1.1] /home/noir/Android/work/Clients/gootax_app_android_client_v3/app/build/intermediates/exploded-aar/com.android.support/support-v4/24.1.1/AndroidManifest.xml:21:5-23:54
MERGED from [com.google.android.gms:play-services-basement:9.2.1] /home/noir/Android/work/Clients/gootax_app_android_client_v3/app/build/intermediates/exploded-aar/com.google.android.gms/play-services-basement/9.2.1/AndroidManifest.xml:18:5-42
MERGED from [com.android.support:support-v4:24.1.1] /home/noir/Android/work/Clients/gootax_app_android_client_v3/app/build/intermediates/exploded-aar/com.android.support/support-v4/24.1.1/AndroidManifest.xml:21:5-23:54
MERGED from [com.facebook.fresco:fresco:0.10.0] /home/noir/Android/work/Clients/gootax_app_android_client_v3/app/build/intermediates/exploded-aar/com.facebook.fresco/fresco/0.10.0/AndroidManifest.xml:5:5-7:41
MERGED from [com.facebook.fresco:drawee:0.10.0] /home/noir/Android/work/Clients/gootax_app_android_client_v3/app/build/intermediates/exploded-aar/com.facebook.fresco/drawee/0.10.0/AndroidManifest.xml:5:5-7:41
MERGED from [com.android.support:support-v4:24.1.1] /home/noir/Android/work/Clients/gootax_app_android_client_v3/app/build/intermediates/exploded-aar/com.android.support/support-v4/24.1.1/AndroidManifest.xml:21:5-23:54
MERGED from [com.facebook.fresco:fbcore:0.10.0] /home/noir/Android/work/Clients/gootax_app_android_client_v3/app/build/intermediates/exploded-aar/com.facebook.fresco/fbcore/0.10.0/AndroidManifest.xml:5:5-7:41
MERGED from [com.facebook.fresco:fbcore:0.10.0] /home/noir/Android/work/Clients/gootax_app_android_client_v3/app/build/intermediates/exploded-aar/com.facebook.fresco/fbcore/0.10.0/AndroidManifest.xml:5:5-7:41
MERGED from [com.facebook.fresco:imagepipeline:0.10.0] /home/noir/Android/work/Clients/gootax_app_android_client_v3/app/build/intermediates/exploded-aar/com.facebook.fresco/imagepipeline/0.10.0/AndroidManifest.xml:5:5-7:41
MERGED from [com.android.support:support-v4:24.1.1] /home/noir/Android/work/Clients/gootax_app_android_client_v3/app/build/intermediates/exploded-aar/com.android.support/support-v4/24.1.1/AndroidManifest.xml:21:5-23:54
MERGED from [com.facebook.fresco:fbcore:0.10.0] /home/noir/Android/work/Clients/gootax_app_android_client_v3/app/build/intermediates/exploded-aar/com.facebook.fresco/fbcore/0.10.0/AndroidManifest.xml:5:5-7:41
MERGED from [com.facebook.fresco:imagepipeline-base:0.10.0] /home/noir/Android/work/Clients/gootax_app_android_client_v3/app/build/intermediates/exploded-aar/com.facebook.fresco/imagepipeline-base/0.10.0/AndroidManifest.xml:5:5-7:41
MERGED from [com.android.support:support-v4:24.1.1] /home/noir/Android/work/Clients/gootax_app_android_client_v3/app/build/intermediates/exploded-aar/com.android.support/support-v4/24.1.1/AndroidManifest.xml:21:5-23:54
MERGED from [com.facebook.fresco:fbcore:0.10.0] /home/noir/Android/work/Clients/gootax_app_android_client_v3/app/build/intermediates/exploded-aar/com.facebook.fresco/fbcore/0.10.0/AndroidManifest.xml:5:5-7:41
MERGED from [com.yandex.android:mobmetricalib:2.42] /home/noir/Android/work/Clients/gootax_app_android_client_v3/app/build/intermediates/exploded-aar/com.yandex.android/mobmetricalib/2.42/AndroidManifest.xml:8:5-10:41
	tools:overrideLibrary
		ADDED from [com.android.support:support-v4:24.1.1] /home/noir/Android/work/Clients/gootax_app_android_client_v3/app/build/intermediates/exploded-aar/com.android.support/support-v4/24.1.1/AndroidManifest.xml:23:9-51
	android:targetSdkVersion
		INJECTED from /home/noir/Android/work/Clients/gootax_app_android_client_v3/app/src/main/AndroidManifest.xml
		INJECTED from /home/noir/Android/work/Clients/gootax_app_android_client_v3/app/src/main/AndroidManifest.xml
	android:minSdkVersion
		INJECTED from /home/noir/Android/work/Clients/gootax_app_android_client_v3/app/src/main/AndroidManifest.xml
		INJECTED from /home/noir/Android/work/Clients/gootax_app_android_client_v3/app/src/main/AndroidManifest.xml
uses-feature#0x00020000
ADDED from [com.google.android.gms:play-services-maps:9.2.1] /home/noir/Android/work/Clients/gootax_app_android_client_v3/app/build/intermediates/exploded-aar/com.google.android.gms/play-services-maps/9.2.1/AndroidManifest.xml:22:5-24:33
	android:glEsVersion
		ADDED from [com.google.android.gms:play-services-maps:9.2.1] /home/noir/Android/work/Clients/gootax_app_android_client_v3/app/build/intermediates/exploded-aar/com.google.android.gms/play-services-maps/9.2.1/AndroidManifest.xml:23:8-40
	android:required
		ADDED from [com.google.android.gms:play-services-maps:9.2.1] /home/noir/Android/work/Clients/gootax_app_android_client_v3/app/build/intermediates/exploded-aar/com.google.android.gms/play-services-maps/9.2.1/AndroidManifest.xml:24:8-31
activity#com.google.android.gms.common.api.GoogleApiActivity
ADDED from [com.google.android.gms:play-services-base:9.2.1] /home/noir/Android/work/Clients/gootax_app_android_client_v3/app/build/intermediates/exploded-aar/com.google.android.gms/play-services-base/9.2.1/AndroidManifest.xml:20:9-22:45
MERGED from [com.google.android.gms:play-services-base:9.2.1] /home/noir/Android/work/Clients/gootax_app_android_client_v3/app/build/intermediates/exploded-aar/com.google.android.gms/play-services-base/9.2.1/AndroidManifest.xml:20:9-22:45
MERGED from [com.google.android.gms:play-services-base:9.2.1] /home/noir/Android/work/Clients/gootax_app_android_client_v3/app/build/intermediates/exploded-aar/com.google.android.gms/play-services-base/9.2.1/AndroidManifest.xml:20:9-22:45
	android:exported
		ADDED from [com.google.android.gms:play-services-base:9.2.1] /home/noir/Android/work/Clients/gootax_app_android_client_v3/app/build/intermediates/exploded-aar/com.google.android.gms/play-services-base/9.2.1/AndroidManifest.xml:22:19-43
	android:theme
		ADDED from [com.google.android.gms:play-services-base:9.2.1] /home/noir/Android/work/Clients/gootax_app_android_client_v3/app/build/intermediates/exploded-aar/com.google.android.gms/play-services-base/9.2.1/AndroidManifest.xml:21:19-78
	android:name
		ADDED from [com.google.android.gms:play-services-base:9.2.1] /home/noir/Android/work/Clients/gootax_app_android_client_v3/app/build/intermediates/exploded-aar/com.google.android.gms/play-services-base/9.2.1/AndroidManifest.xml:20:19-85
meta-data#com.google.android.gms.version
ADDED from [com.google.android.gms:play-services-basement:9.2.1] /home/noir/Android/work/Clients/gootax_app_android_client_v3/app/build/intermediates/exploded-aar/com.google.android.gms/play-services-basement/9.2.1/AndroidManifest.xml:21:9-23:69
MERGED from [com.google.android.gms:play-services-basement:9.2.1] /home/noir/Android/work/Clients/gootax_app_android_client_v3/app/build/intermediates/exploded-aar/com.google.android.gms/play-services-basement/9.2.1/AndroidManifest.xml:21:9-23:69
MERGED from [com.google.android.gms:play-services-basement:9.2.1] /home/noir/Android/work/Clients/gootax_app_android_client_v3/app/build/intermediates/exploded-aar/com.google.android.gms/play-services-basement/9.2.1/AndroidManifest.xml:21:9-23:69
MERGED from [com.google.android.gms:play-services-basement:9.2.1] /home/noir/Android/work/Clients/gootax_app_android_client_v3/app/build/intermediates/exploded-aar/com.google.android.gms/play-services-basement/9.2.1/AndroidManifest.xml:21:9-23:69
MERGED from [com.google.android.gms:play-services-basement:9.2.1] /home/noir/Android/work/Clients/gootax_app_android_client_v3/app/build/intermediates/exploded-aar/com.google.android.gms/play-services-basement/9.2.1/AndroidManifest.xml:21:9-23:69
MERGED from [com.google.android.gms:play-services-basement:9.2.1] /home/noir/Android/work/Clients/gootax_app_android_client_v3/app/build/intermediates/exploded-aar/com.google.android.gms/play-services-basement/9.2.1/AndroidManifest.xml:21:9-23:69
MERGED from [com.google.android.gms:play-services-basement:9.2.1] /home/noir/Android/work/Clients/gootax_app_android_client_v3/app/build/intermediates/exploded-aar/com.google.android.gms/play-services-basement/9.2.1/AndroidManifest.xml:21:9-23:69
MERGED from [com.google.android.gms:play-services-basement:9.2.1] /home/noir/Android/work/Clients/gootax_app_android_client_v3/app/build/intermediates/exploded-aar/com.google.android.gms/play-services-basement/9.2.1/AndroidManifest.xml:21:9-23:69
MERGED from [com.google.android.gms:play-services-basement:9.2.1] /home/noir/Android/work/Clients/gootax_app_android_client_v3/app/build/intermediates/exploded-aar/com.google.android.gms/play-services-basement/9.2.1/AndroidManifest.xml:21:9-23:69
	android:value
		ADDED from [com.google.android.gms:play-services-basement:9.2.1] /home/noir/Android/work/Clients/gootax_app_android_client_v3/app/build/intermediates/exploded-aar/com.google.android.gms/play-services-basement/9.2.1/AndroidManifest.xml:23:13-66
	android:name
		ADDED from [com.google.android.gms:play-services-basement:9.2.1] /home/noir/Android/work/Clients/gootax_app_android_client_v3/app/build/intermediates/exploded-aar/com.google.android.gms/play-services-basement/9.2.1/AndroidManifest.xml:22:13-58
service#com.yandex.metrica.MetricaService
ADDED from [com.yandex.android:mobmetricalib:2.42] /home/noir/Android/work/Clients/gootax_app_android_client_v3/app/build/intermediates/exploded-aar/com.yandex.android/mobmetricalib/2.42/AndroidManifest.xml:19:9-36:19
	android:enabled
		ADDED from [com.yandex.android:mobmetricalib:2.42] /home/noir/Android/work/Clients/gootax_app_android_client_v3/app/build/intermediates/exploded-aar/com.yandex.android/mobmetricalib/2.42/AndroidManifest.xml:21:13-35
	android:process
		ADDED from [com.yandex.android:mobmetricalib:2.42] /home/noir/Android/work/Clients/gootax_app_android_client_v3/app/build/intermediates/exploded-aar/com.yandex.android/mobmetricalib/2.42/AndroidManifest.xml:23:13-39
	android:exported
		ADDED from [com.yandex.android:mobmetricalib:2.42] /home/noir/Android/work/Clients/gootax_app_android_client_v3/app/build/intermediates/exploded-aar/com.yandex.android/mobmetricalib/2.42/AndroidManifest.xml:22:13-36
	tools:ignore
		ADDED from [com.yandex.android:mobmetricalib:2.42] /home/noir/Android/work/Clients/gootax_app_android_client_v3/app/build/intermediates/exploded-aar/com.yandex.android/mobmetricalib/2.42/AndroidManifest.xml:24:13-43
	android:name
		ADDED from [com.yandex.android:mobmetricalib:2.42] /home/noir/Android/work/Clients/gootax_app_android_client_v3/app/build/intermediates/exploded-aar/com.yandex.android/mobmetricalib/2.42/AndroidManifest.xml:20:13-61
intent-filter#android.intent.category.DEFAULT+com.yandex.metrica.IMetricaService
ADDED from [com.yandex.android:mobmetricalib:2.42] /home/noir/Android/work/Clients/gootax_app_android_client_v3/app/build/intermediates/exploded-aar/com.yandex.android/mobmetricalib/2.42/AndroidManifest.xml:25:13-31:29
category#android.intent.category.DEFAULT
ADDED from [com.yandex.android:mobmetricalib:2.42] /home/noir/Android/work/Clients/gootax_app_android_client_v3/app/build/intermediates/exploded-aar/com.yandex.android/mobmetricalib/2.42/AndroidManifest.xml:26:17-76
	android:name
		ADDED from [com.yandex.android:mobmetricalib:2.42] /home/noir/Android/work/Clients/gootax_app_android_client_v3/app/build/intermediates/exploded-aar/com.yandex.android/mobmetricalib/2.42/AndroidManifest.xml:26:27-73
action#com.yandex.metrica.IMetricaService
ADDED from [com.yandex.android:mobmetricalib:2.42] /home/noir/Android/work/Clients/gootax_app_android_client_v3/app/build/intermediates/exploded-aar/com.yandex.android/mobmetricalib/2.42/AndroidManifest.xml:28:17-77
	android:name
		ADDED from [com.yandex.android:mobmetricalib:2.42] /home/noir/Android/work/Clients/gootax_app_android_client_v3/app/build/intermediates/exploded-aar/com.yandex.android/mobmetricalib/2.42/AndroidManifest.xml:28:25-74
data
ADDED from [com.yandex.android:mobmetricalib:2.42] /home/noir/Android/work/Clients/gootax_app_android_client_v3/app/build/intermediates/exploded-aar/com.yandex.android/mobmetricalib/2.42/AndroidManifest.xml:30:17-50
	android:scheme
		ADDED from [com.yandex.android:mobmetricalib:2.42] /home/noir/Android/work/Clients/gootax_app_android_client_v3/app/build/intermediates/exploded-aar/com.yandex.android/mobmetricalib/2.42/AndroidManifest.xml:30:23-47
meta-data#metrica:api:level
ADDED from [com.yandex.android:mobmetricalib:2.42] /home/noir/Android/work/Clients/gootax_app_android_client_v3/app/build/intermediates/exploded-aar/com.yandex.android/mobmetricalib/2.42/AndroidManifest.xml:33:13-35:38
	android:value
		ADDED from [com.yandex.android:mobmetricalib:2.42] /home/noir/Android/work/Clients/gootax_app_android_client_v3/app/build/intermediates/exploded-aar/com.yandex.android/mobmetricalib/2.42/AndroidManifest.xml:35:17-35
	android:name
		ADDED from [com.yandex.android:mobmetricalib:2.42] /home/noir/Android/work/Clients/gootax_app_android_client_v3/app/build/intermediates/exploded-aar/com.yandex.android/mobmetricalib/2.42/AndroidManifest.xml:34:17-49
receiver#com.yandex.metrica.MetricaEventHandler
ADDED from [com.yandex.android:mobmetricalib:2.42] /home/noir/Android/work/Clients/gootax_app_android_client_v3/app/build/intermediates/exploded-aar/com.yandex.android/mobmetricalib/2.42/AndroidManifest.xml:39:9-47:20
	android:enabled
		ADDED from [com.yandex.android:mobmetricalib:2.42] /home/noir/Android/work/Clients/gootax_app_android_client_v3/app/build/intermediates/exploded-aar/com.yandex.android/mobmetricalib/2.42/AndroidManifest.xml:41:13-35
	android:exported
		ADDED from [com.yandex.android:mobmetricalib:2.42] /home/noir/Android/work/Clients/gootax_app_android_client_v3/app/build/intermediates/exploded-aar/com.yandex.android/mobmetricalib/2.42/AndroidManifest.xml:42:13-36
	tools:ignore
		ADDED from [com.yandex.android:mobmetricalib:2.42] /home/noir/Android/work/Clients/gootax_app_android_client_v3/app/build/intermediates/exploded-aar/com.yandex.android/mobmetricalib/2.42/AndroidManifest.xml:43:13-44
	android:name
		ADDED from [com.yandex.android:mobmetricalib:2.42] /home/noir/Android/work/Clients/gootax_app_android_client_v3/app/build/intermediates/exploded-aar/com.yandex.android/mobmetricalib/2.42/AndroidManifest.xml:40:13-66
intent-filter#com.android.vending.INSTALL_REFERRER
ADDED from [com.yandex.android:mobmetricalib:2.42] /home/noir/Android/work/Clients/gootax_app_android_client_v3/app/build/intermediates/exploded-aar/com.yandex.android/mobmetricalib/2.42/AndroidManifest.xml:44:13-46:29
action#com.android.vending.INSTALL_REFERRER
ADDED from [com.yandex.android:mobmetricalib:2.42] /home/noir/Android/work/Clients/gootax_app_android_client_v3/app/build/intermediates/exploded-aar/com.yandex.android/mobmetricalib/2.42/AndroidManifest.xml:45:17-79
	android:name
		ADDED from [com.yandex.android:mobmetricalib:2.42] /home/noir/Android/work/Clients/gootax_app_android_client_v3/app/build/intermediates/exploded-aar/com.yandex.android/mobmetricalib/2.42/AndroidManifest.xml:45:25-76
